[    0.000000] Initializing cgroup subsys cpuset
[    0.000000] Initializing cgroup subsys cpu
[    0.000000] Initializing cgroup subsys cpuacct
[    0.000000] Linux version 4.4.0-184-generic (buildd@lgw01-amd64-060) (gcc version 5.4.0 20160609 (Ubuntu 5.4.0-6ubuntu1~16.04.12) ) #214-Ubuntu SMP Thu Jun 4 10:14:11 UTC 2020 (Ubuntu 4.4.0-184.214-generic 4.4.223)
[    0.000000] Command line: BOOT_IMAGE=/boot/vmlinuz-4.4.0-184-generic root=LABEL=cloudimg-rootfs ro console=tty1 console=ttyS0
[    0.000000] KERNEL supported cpus:
[    0.000000]   Intel GenuineIntel
[    0.000000]   AMD AuthenticAMD
[    0.000000]   Centaur CentaurHauls
[    0.000000] x86/fpu: xstate_offset[2]:  576, xstate_sizes[2]:  256
[    0.000000] x86/fpu: Supporting XSAVE feature 0x01: 'x87 floating point registers'
[    0.000000] x86/fpu: Supporting XSAVE feature 0x02: 'SSE registers'
[    0.000000] x86/fpu: Supporting XSAVE feature 0x04: 'AVX registers'
[    0.000000] x86/fpu: Enabled xstate features 0x7, context size is 832 bytes, using 'standard' format.
[    0.000000] e820: BIOS-provided physical RAM map:
[    0.000000] BIOS-e820: [mem 0x0000000000000000-0x000000000009fbff] usable
[    0.000000] BIOS-e820: [mem 0x000000000009fc00-0x000000000009ffff] reserved
[    0.000000] BIOS-e820: [mem 0x00000000000f0000-0x00000000000fffff] reserved
[    0.000000] BIOS-e820: [mem 0x0000000000100000-0x000000003ffeffff] usable
[    0.000000] BIOS-e820: [mem 0x000000003fff0000-0x000000003fffffff] ACPI data
[    0.000000] BIOS-e820: [mem 0x00000000fec00000-0x00000000fec00fff] reserved
[    0.000000] BIOS-e820: [mem 0x00000000fee00000-0x00000000fee00fff] reserved
[    0.000000] BIOS-e820: [mem 0x00000000fffc0000-0x00000000ffffffff] reserved
[    0.000000] NX (Execute Disable) protection: active
[    0.000000] SMBIOS 2.5 present.
[    0.000000] Hypervisor detected: KVM
[    0.000000] e820: last_pfn = 0x3fff0 max_arch_pfn = 0x400000000
[    0.000000] MTRR: Disabled
[    0.000000] x86/PAT: MTRRs disabled, skipping PAT initialization too.
[    0.000000] CPU MTRRs all blank - virtualized system.
[    0.000000] x86/PAT: Configuration [0-7]: WB  WT  UC- UC  WB  WT  UC- UC  
[    0.000000] found SMP MP-table at [mem 0x0009fff0-0x0009ffff] mapped at [ffff88000009fff0]
[    0.000000] Scanning 1 areas for low memory corruption
[    0.000000] RAMDISK: [mem 0x362e0000-0x37167fff]
[    0.000000] ACPI: Early table checksum verification disabled
[    0.000000] ACPI: RSDP 0x00000000000E0000 000024 (v02 VBOX  )
[    0.000000] ACPI: XSDT 0x000000003FFF0030 00003C (v01 VBOX   VBOXXSDT 00000001 ASL  00000061)
[    0.000000] ACPI: FACP 0x000000003FFF00F0 0000F4 (v04 VBOX   VBOXFACP 00000001 ASL  00000061)
[    0.000000] ACPI: DSDT 0x000000003FFF0470 0022EA (v02 VBOX   VBOXBIOS 00000002 INTL 20181213)
[    0.000000] ACPI: FACS 0x000000003FFF0200 000040
[    0.000000] ACPI: FACS 0x000000003FFF0200 000040
[    0.000000] ACPI: APIC 0x000000003FFF0240 00005C (v02 VBOX   VBOXAPIC 00000001 ASL  00000061)
[    0.000000] ACPI: SSDT 0x000000003FFF02A0 0001CC (v01 VBOX   VBOXCPUT 00000002 INTL 20181213)
[    0.000000] No NUMA configuration found
[    0.000000] Faking a node at [mem 0x0000000000000000-0x000000003ffeffff]
[    0.000000] NODE_DATA(0) allocated [mem 0x3ffeb000-0x3ffeffff]
[    0.000000] kvm-clock: Using msrs 4b564d01 and 4b564d00
[    0.000000] kvm-clock: cpu 0, msr 0:3ffe3001, primary cpu clock
[    0.000000] kvm-clock: using sched offset of 3657770100 cycles
[    0.000000] clocksource: kvm-clock: mask: 0xffffffffffffffff max_cycles: 0x1cd42e4dffb, max_idle_ns: 881590591483 ns
[    0.000000] Zone ranges:
[    0.000000]   DMA      [mem 0x0000000000001000-0x0000000000ffffff]
[    0.000000]   DMA32    [mem 0x0000000001000000-0x000000003ffeffff]
[    0.000000]   Normal   empty
[    0.000000]   Device   empty
[    0.000000] Movable zone start for each node
[    0.000000] Early memory node ranges
[    0.000000]   node   0: [mem 0x0000000000001000-0x000000000009efff]
[    0.000000]   node   0: [mem 0x0000000000100000-0x000000003ffeffff]
[    0.000000] Initmem setup node 0 [mem 0x0000000000001000-0x000000003ffeffff]
[    0.000000] ACPI: PM-Timer IO Port: 0x4008
[    0.000000] IOAPIC[0]: apic_id 2, version 32, address 0xfec00000, GSI 0-23
[    0.000000] ACPI: INT_SRC_OVR (bus 0 bus_irq 0 global_irq 2 dfl dfl)
[    0.000000] ACPI: INT_SRC_OVR (bus 0 bus_irq 9 global_irq 9 low level)
[    0.000000] Using ACPI (MADT) for SMP configuration information
[    0.000000] smpboot: Allowing 2 CPUs, 0 hotplug CPUs
[    0.000000] PM: Registered nosave memory: [mem 0x00000000-0x00000fff]
[    0.000000] PM: Registered nosave memory: [mem 0x0009f000-0x0009ffff]
[    0.000000] PM: Registered nosave memory: [mem 0x000a0000-0x000effff]
[    0.000000] PM: Registered nosave memory: [mem 0x000f0000-0x000fffff]
[    0.000000] e820: [mem 0x40000000-0xfebfffff] available for PCI devices
[    0.000000] Booting paravirtualized kernel on KVM
[    0.000000] clocksource: refined-jiffies: mask: 0xffffffff max_cycles: 0xffffffff, max_idle_ns: 7645519600211568 ns
[    0.000000] setup_percpu: NR_CPUS:512 nr_cpumask_bits:512 nr_cpu_ids:2 nr_node_ids:1
[    0.000000] PERCPU: Embedded 33 pages/cpu @ffff88003fc00000 s95448 r8192 d31528 u1048576
[    0.000000] Built 1 zonelists in Node order, mobility grouping on.  Total pages: 257912
[    0.000000] Policy zone: DMA32
[    0.000000] Kernel command line: BOOT_IMAGE=/boot/vmlinuz-4.4.0-184-generic root=LABEL=cloudimg-rootfs ro console=tty1 console=ttyS0
[    0.000000] PID hash table entries: 4096 (order: 3, 32768 bytes)
[    0.000000] Memory: 997668K/1048120K available (8632K kernel code, 1336K rwdata, 4036K rodata, 1492K init, 1292K bss, 50452K reserved, 0K cma-reserved)
[    0.000000] SLUB: HWalign=64, Order=0-3, MinObjects=0, CPUs=2, Nodes=1
[    0.000000] Kernel/User page tables isolation: enabled
[    0.000000] Hierarchical RCU implementation.
[    0.000000] 	Build-time adjustment of leaf fanout to 64.
[    0.000000] 	RCU restricting CPUs from NR_CPUS=512 to nr_cpu_ids=2.
[    0.000000] RCU: Adjusting geometry for rcu_fanout_leaf=64, nr_cpu_ids=2
[    0.000000] NR_IRQS:33024 nr_irqs:440 16
[    0.000000] Console: colour VGA+ 80x25
[    0.000000] console [tty1] enabled
[    0.000000] console [ttyS0] enabled
[    0.000000] tsc: Detected 1995.373 MHz processor
[    0.357674] Calibrating delay loop (skipped) preset value.. 3990.74 BogoMIPS (lpj=7981492)
[    0.359954] pid_max: default: 32768 minimum: 301
[    0.361369] ACPI: Core revision 20150930
[    0.363645] ACPI: 2 ACPI AML tables successfully acquired and loaded
[    0.365717] Security Framework initialized
[    0.366559] Yama: becoming mindful.
[    0.367924] AppArmor: AppArmor initialized
[    0.368908] Dentry cache hash table entries: 131072 (order: 8, 1048576 bytes)
[    0.372167] Inode-cache hash table entries: 65536 (order: 7, 524288 bytes)
[    0.376161] Mount-cache hash table entries: 2048 (order: 2, 16384 bytes)
[    0.377605] Mountpoint-cache hash table entries: 2048 (order: 2, 16384 bytes)
[    0.380266] Initializing cgroup subsys io
[    0.382089] Initializing cgroup subsys memory
[    0.382970] Initializing cgroup subsys devices
[    0.384862] Initializing cgroup subsys freezer
[    0.387055] Initializing cgroup subsys net_cls
[    0.390975] Initializing cgroup subsys perf_event
[    0.392602] Initializing cgroup subsys net_prio
[    0.399138] Initializing cgroup subsys hugetlb
[    0.400390] Initializing cgroup subsys pids
[    0.410466] mce: CPU supports 0 MCE banks
[    0.430290] Last level iTLB entries: 4KB 1024, 2MB 1024, 4MB 1024
[    0.431696] Last level dTLB entries: 4KB 1024, 2MB 1024, 4MB 1024, 1GB 4
[    0.433153] Spectre V1 : Mitigation: usercopy/swapgs barriers and __user pointer sanitization
[    0.436568] Spectre V2 : Mitigation: Full generic retpoline
[    0.439589] Spectre V2 : Spectre v2 / SpectreRSB mitigation: Filling RSB on context switch
[    0.442899] Speculative Store Bypass: Vulnerable
[    0.444270] SRBDS: Unknown: Dependent on hypervisor status
[    0.446742] MDS: Mitigation: Clear CPU buffers
[    0.451794] Freeing SMP alternatives memory: 36K
[    0.462993] ftrace: allocating 32319 entries in 127 pages
[    0.539627] smpboot: APIC(0) Converting physical 0 to logical package 0
[    0.540950] smpboot: Max logical packages: 1
[    0.544957] x2apic enabled
[    0.547432] Switched APIC routing to physical x2apic.
[    0.549713] ..TIMER: vector=0x30 apic1=0 pin1=2 apic2=-1 pin2=-1
[    0.668360] smpboot: CPU0: Intel(R) Core(TM) i5-4590T CPU @ 2.00GHz (family: 0x6, model: 0x3c, stepping: 0x3)
[    0.670720] Performance Events: unsupported p6 CPU model 60 no PMU driver, software events only.
[    0.689217] KVM setup paravirtual spinlock
[    0.691023] x86: Booting SMP configuration:
[    0.692083] .... node  #0, CPUs:      #1
[    0.693042] kvm-clock: cpu 1, msr 0:3ffe3041, secondary cpu clock
[    0.702129] mce: CPU supports 0 MCE banks
[    0.709129] x86: Booted up 1 node, 2 CPUs
[    0.711362] smpboot: Total of 2 processors activated (7981.49 BogoMIPS)
[    0.717019] devtmpfs: initialized
[    0.724102] evm: security.selinux
[    0.725089] evm: security.SMACK64
[    0.725849] evm: security.SMACK64EXEC
[    0.726621] evm: security.SMACK64TRANSMUTE
[    0.748200] evm: security.SMACK64MMAP
[    0.749072] evm: security.ima
[    0.749849] evm: security.capability
[    0.751053] clocksource: jiffies: mask: 0xffffffff max_cycles: 0xffffffff, max_idle_ns: 7645041785100000 ns
[    0.753062] futex hash table entries: 512 (order: 3, 32768 bytes)
[    0.756691] pinctrl core: initialized pinctrl subsystem
[    0.757962] RTC time: 15:06:47, date: 07/23/20
[    0.771800] NET: Registered protocol family 16
[    0.786442] cpuidle: using governor ladder
[    0.796226] cpuidle: using governor menu
[    0.797094] PCCT header not found.
[    0.797981] ACPI: bus type PCI registered
[    0.799692] acpiphp: ACPI Hot Plug PCI Controller Driver version: 0.5
[    0.806955] PCI: Using configuration type 1 for base access
[    0.820950] ACPI: Added _OSI(Module Device)
[    0.821873] ACPI: Added _OSI(Processor Device)
[    0.822869] ACPI: Added _OSI(3.0 _SCP Extensions)
[    0.823817] ACPI: Added _OSI(Processor Aggregator Device)
[    0.825805] ACPI: Executed 1 blocks of module-level executable AML code
[    0.832476] ACPI: Interpreter enabled
[    0.833323] ACPI: (supports S0 S5)
[    0.834556] ACPI: Using IOAPIC for interrupt routing
[    0.836871] PCI: Using host bridge windows from ACPI; if necessary, use "pci=nocrs" and report a bug
[    0.850490] ACPI: PCI Root Bridge [PCI0] (domain 0000 [bus 00-ff])
[    0.851704] acpi PNP0A03:00: _OSC: OS supports [ASPM ClockPM Segments MSI]
[    0.861206] acpi PNP0A03:00: _OSC: not requesting OS control; OS requires [ExtendedConfig ASPM ClockPM MSI]
[    0.864020] acpi PNP0A03:00: fail to add MMCONFIG information, can't access extended PCI configuration space under this bridge.
[    0.875940] PCI host bridge to bus 0000:00
[    0.876817] pci_bus 0000:00: root bus resource [io  0x0000-0x0cf7 window]
[    0.878100] pci_bus 0000:00: root bus resource [io  0x0d00-0xffff window]
[    0.879705] pci_bus 0000:00: root bus resource [mem 0x000a0000-0x000bffff window]
[    0.881429] pci_bus 0000:00: root bus resource [mem 0x40000000-0xfdffffff window]
[    0.883011] pci_bus 0000:00: root bus resource [bus 00-ff]
[    0.885857] pci 0000:00:01.1: legacy IDE quirk: reg 0x10: [io  0x01f0-0x01f7]
[    0.887378] pci 0000:00:01.1: legacy IDE quirk: reg 0x14: [io  0x03f6]
[    0.890222] pci 0000:00:01.1: legacy IDE quirk: reg 0x18: [io  0x0170-0x0177]
[    0.903016] pci 0000:00:01.1: legacy IDE quirk: reg 0x1c: [io  0x0376]
[    0.948795] pci 0000:00:07.0: quirk: [io  0x4000-0x403f] claimed by PIIX4 ACPI
[    0.957958] pci 0000:00:07.0: quirk: [io  0x4100-0x410f] claimed by PIIX4 SMB
[    0.990502] ACPI: PCI Interrupt Link [LNKA] (IRQs 5 9 10 *11)
[    0.993491] ACPI: PCI Interrupt Link [LNKB] (IRQs 5 9 *10 11)
[    0.995342] ACPI: PCI Interrupt Link [LNKC] (IRQs 5 *9 10 11)
[    1.001511] ACPI: PCI Interrupt Link [LNKD] (IRQs 5 9 10 *11)
[    1.004594] ACPI: Enabled 2 GPEs in block 00 to 07
[    1.006568] vgaarb: setting as boot device: PCI:0000:00:02.0
[    1.008276] vgaarb: device added: PCI:0000:00:02.0,decodes=io+mem,owns=io+mem,locks=none
[    1.010317] vgaarb: loaded
[    1.011648] vgaarb: bridge control possible 0000:00:02.0
[    1.013046] SCSI subsystem initialized
[    1.015665] ACPI: bus type USB registered
[    1.016774] usbcore: registered new interface driver usbfs
[    1.017830] usbcore: registered new interface driver hub
[    1.019032] usbcore: registered new device driver usb
[    1.022220] PCI: Using ACPI for IRQ routing
[    1.023974] NetLabel: Initializing
[    1.025683] NetLabel:  domain hash size = 128
[    1.026675] NetLabel:  protocols = UNLABELED CIPSOv4
[    1.029698] NetLabel:  unlabeled traffic allowed by default
[    1.032089] amd_nb: Cannot enumerate AMD northbridges
[    1.034330] clocksource: Switched to clocksource kvm-clock
[    1.047596] AppArmor: AppArmor Filesystem Enabled
[    1.051817] pnp: PnP ACPI init
[    1.053530] pnp: PnP ACPI: found 3 devices
[    1.081618] clocksource: acpi_pm: mask: 0xffffff max_cycles: 0xffffff, max_idle_ns: 2085701024 ns
[    1.085628] NET: Registered protocol family 2
[    1.087479] TCP established hash table entries: 8192 (order: 4, 65536 bytes)
[    1.088796] TCP bind hash table entries: 8192 (order: 5, 131072 bytes)
[    1.090352] TCP: Hash tables configured (established 8192 bind 8192)
[    1.094536] UDP hash table entries: 512 (order: 2, 16384 bytes)
[    1.096240] UDP-Lite hash table entries: 512 (order: 2, 16384 bytes)
[    1.097691] NET: Registered protocol family 1
[    1.099014] pci 0000:00:00.0: Limiting direct PCI/PCI transfers
[    1.101537] pci 0000:00:01.0: Activating ISA DMA hang workarounds
[    1.103178] Unpacking initramfs...
[    1.413338] Freeing initrd memory: 14880K
[    1.415385] RAPL PMU detected, API unit is 2^-32 Joules, 4 fixed counters 10737418240 ms ovfl timer
[    1.418796] hw unit of domain pp0-core 2^-0 Joules
[    1.421019] hw unit of domain package 2^-0 Joules
[    1.422962] hw unit of domain dram 2^-0 Joules
[    1.424570] hw unit of domain pp1-gpu 2^-0 Joules
[    1.426481] clocksource: tsc: mask: 0xffffffffffffffff max_cycles: 0x3986369a89c, max_idle_ns: 881590531614 ns
[    1.430885] platform rtc_cmos: registered platform RTC device (no PNP device found)
[    1.433870] Scanning for low memory corruption every 60 seconds
[    1.436365] audit: initializing netlink subsys (disabled)
[    1.437487] audit: type=2000 audit(1595516813.278:1): initialized
[    1.439264] Initialise system trusted keyring
[    1.442873] HugeTLB registered 2 MB page size, pre-allocated 0 pages
[    1.450014] zbud: loaded
[    1.454104] VFS: Disk quotas dquot_6.6.0
[    1.455780] VFS: Dquot-cache hash table entries: 512 (order 0, 4096 bytes)
[    1.458583] squashfs: version 4.0 (2009/01/31) Phillip Lougher
[    1.463530] fuse init (API version 7.23)
[    1.465391] Key type big_key registered
[    1.466265] Allocating IMA MOK and blacklist keyrings.
[    1.472365] Key type asymmetric registered
[    1.473379] Asymmetric key parser 'x509' registered
[    1.475099] Block layer SCSI generic (bsg) driver version 0.4 loaded (major 249)
[    1.481601] io scheduler noop registered
[    1.485641] io scheduler deadline registered (default)
[    1.487625] io scheduler cfq registered
[    1.489300] pci_hotplug: PCI Hot Plug PCI Core version: 0.5
[    1.491581] pciehp: PCI Express Hot Plug Controller Driver version: 0.4
[    1.494062] ACPI: AC Adapter [AC] (on-line)
[    1.495506] input: Power Button as /devices/LNXSYSTM:00/LNXPWRBN:00/input/input0
[    1.499383] ACPI: Power Button [PWRF]
[    1.500579] input: Sleep Button as /devices/LNXSYSTM:00/LNXSLPBN:00/input/input1
[    1.502454] ACPI: Sleep Button [SLPF]
[    1.503775] GHES: HEST is not enabled!
[    1.504796] Serial: 8250/16550 driver, 32 ports, IRQ sharing enabled
[    1.528935] 00:02: ttyS0 at I/O 0x3f8 (irq = 4, base_baud = 115200) is a 16550A
[    1.533315] Linux agpgart interface v0.103
[    1.538150] loop: module loaded
[    1.540299] scsi host0: ata_piix
[    1.541796] scsi host1: ata_piix
[    1.543480] ata1: PATA max UDMA/33 cmd 0x1f0 ctl 0x3f6 bmdma 0xd000 irq 14
[    1.546385] ata2: PATA max UDMA/33 cmd 0x170 ctl 0x376 bmdma 0xd008 irq 15
[    1.550231] libphy: Fixed MDIO Bus: probed
[    1.551367] tun: Universal TUN/TAP device driver, 1.6
[    1.553030] tun: (C) 1999-2004 Max Krasnyansky <maxk@qualcomm.com>
[    1.554511] PPP generic driver version 2.4.2
[    1.556244] ehci_hcd: USB 2.0 'Enhanced' Host Controller (EHCI) Driver
[    1.559262] ehci-pci: EHCI PCI platform driver
[    1.561049] ehci-platform: EHCI generic platform driver
[    1.563335] ohci_hcd: USB 1.1 'Open' Host Controller (OHCI) Driver
[    1.565667] ohci-pci: OHCI PCI platform driver
[    1.567514] ohci-platform: OHCI generic platform driver
[    1.568848] uhci_hcd: USB Universal Host Controller Interface driver
[    1.570942] i8042: PNP: PS/2 Controller [PNP0303:PS2K,PNP0f03:PS2M] at 0x60,0x64 irq 1,12
[    1.574859] serio: i8042 KBD port at 0x60,0x64 irq 1
[    1.576887] serio: i8042 AUX port at 0x60,0x64 irq 12
[    1.578101] mousedev: PS/2 mouse device common for all mice
[    1.580770] rtc_cmos rtc_cmos: rtc core: registered rtc_cmos as rtc0
[    1.582883] rtc_cmos rtc_cmos: alarms up to one day, 114 bytes nvram
[    1.584504] i2c /dev entries driver
[    1.585588] device-mapper: uevent: version 1.0.3
[    1.587823] input: AT Translated Set 2 keyboard as /devices/platform/i8042/serio0/input/input2
[    1.591039] device-mapper: ioctl: 4.34.0-ioctl (2015-10-28) initialised: dm-devel@redhat.com
[    1.593356] ledtrig-cpu: registered to indicate activity on CPUs
[    1.595409] NET: Registered protocol family 10
[    1.598480] NET: Registered protocol family 17
[    1.599955] Key type dns_resolver registered
[    1.601350] registered taskstats version 1
[    1.602458] Loading compiled-in X.509 certificates
[    1.604993] Loaded X.509 cert 'Build time autogenerated kernel key: b6ae09eed57f82583ccd3c65c463e852cdd7a0b5'
[    1.607852] zswap: loaded using pool lzo/zbud
[    1.614956] Key type trusted registered
[    1.623123] Key type encrypted registered
[    1.624024] AppArmor: AppArmor sha1 policy hashing enabled
[    1.625321] ima: No TPM chip found, activating TPM-bypass!
[    1.626384] ima: Allocated hash algorithm: sha1
[    1.627468] evm: HMAC attrs: 0x1
[    1.628604]   Magic number: 12:390:134
[    1.629808] pci 0000:00:03.0: hash matches
[    1.631133] rtc_cmos rtc_cmos: setting system clock to 2020-07-23 15:06:48 UTC (1595516808)
[    1.633154] BIOS EDD facility v0.16 2004-Jun-25, 0 devices found
[    1.636748] EDD information not available.
[    1.716756] Freeing unused kernel memory: 1492K
[    1.717827] Write protecting the kernel read-only data: 14336k
[    1.719419] Freeing unused kernel memory: 1596K
[    1.720560] Freeing unused kernel memory: 60K
Loading, please wait...
starting version 229
[    1.769791] random: systemd-udevd: uninitialized urandom read (16 bytes read, 2 bits of entropy available)
[    1.770734] random: udevadm: uninitialized urandom read (16 bytes read, 2 bits of entropy available)
[    1.770767] random: udevadm: uninitialized urandom read (16 bytes read, 2 bits of entropy available)
[    1.783059] random: udevadm: uninitialized urandom read (16 bytes read, 2 bits of entropy available)
[    1.783122] random: udevadm: uninitialized urandom read (16 bytes read, 2 bits of entropy available)
[    1.783320] random: udevadm: uninitialized urandom read (16 bytes read, 2 bits of entropy available)
[    1.783388] random: udevadm: uninitialized urandom read (16 bytes read, 2 bits of entropy available)
[    1.783452] random: udevadm: uninitialized urandom read (16 bytes read, 2 bits of entropy available)
[    1.783518] random: udevadm: uninitialized urandom read (16 bytes read, 2 bits of entropy available)
[    1.783581] random: udevadm: uninitialized urandom read (16 bytes read, 2 bits of entropy available)
[    1.879049] e1000: Intel(R) PRO/1000 Network Driver - version 7.3.21-k8-NAPI
[    1.887573] e1000: Copyright (c) 1999-2006 Intel Corporation.
[    1.891763] Fusion MPT base driver 3.04.20
[    1.894474] Copyright (c) 1999-2008 LSI Corporation
[    1.907445] Fusion MPT SPI Host driver 3.04.20
[    1.925750] AVX2 version of gcm_enc/dec engaged.
[    1.931946] AES CTR mode by8 optimization enabled
[    2.106346] input: ImExPS/2 Generic Explorer Mouse as /devices/platform/i8042/serio1/input/input4
[    2.309248] e1000 0000:00:03.0 eth0: (PCI:33MHz:32-bit) 02:63:d7:4e:6d:2e
[    2.310788] e1000 0000:00:03.0 eth0: Intel(R) PRO/1000 Network Connection
[    2.316018] mptbase: ioc0: Initiating bringup
[    2.483062] ioc0: LSI53C1030 A0: Capabilities={Initiator}
[    3.447005] scsi host2: ioc0: LSI53C1030 A0, FwRev=00000000h, Ports=1, MaxQ=256, IRQ=20
[    4.308861] scsi 2:0:0:0: Direct-Access     VBOX     HARDDISK         1.0  PQ: 0 ANSI: 5
[    4.316767] scsi target2:0:0: Beginning Domain Validation
[    4.318745] scsi target2:0:0: Domain Validation skipping write tests
[    4.319954] scsi target2:0:0: Ending Domain Validation
[    4.321012] scsi target2:0:0: asynchronous
[    4.333126] scsi 2:0:1:0: Direct-Access     VBOX     HARDDISK         1.0  PQ: 0 ANSI: 5
[    4.335112] scsi target2:0:1: Beginning Domain Validation
[    4.336962] scsi target2:0:1: Domain Validation skipping write tests
[    4.338374] scsi target2:0:1: Ending Domain Validation
[    4.339649] scsi target2:0:1: asynchronous
[    4.358649] sd 2:0:0:0: [sda] 20971520 512-byte logical blocks: (10.7 GB/10.0 GiB)
[    4.396993] sd 2:0:0:0: Attached scsi generic sg0 type 0
[    4.400384] sd 2:0:1:0: [sdb] 20480 512-byte logical blocks: (10.5 MB/10.0 MiB)
[    4.407910] sd 2:0:1:0: [sdb] Write Protect is off
[    4.409460] sd 2:0:1:0: [sdb] Incomplete mode parameter data
[    4.412345] sd 2:0:1:0: [sdb] Assuming drive cache: write through
[    4.426079] sd 2:0:1:0: Attached scsi generic sg1 type 0
[    4.431522] sd 2:0:0:0: [sda] Write Protect is off
[    4.433253] sd 2:0:0:0: [sda] Incomplete mode parameter data
[    4.435988] sd 2:0:0:0: [sda] Assuming drive cache: write through
[    4.440224] sd 2:0:1:0: [sdb] Attached SCSI disk
[    4.455438]  sda: sda1
[    4.456882] sd 2:0:0:0: [sda] Attached SCSI disk
[    4.721328] e1000 0000:00:08.0 eth1: (PCI:33MHz:32-bit) 08:00:27:ae:24:30
[    4.722970] e1000 0000:00:08.0 eth1: Intel(R) PRO/1000 Network Connection
[    4.726122] e1000 0000:00:08.0 enp0s8: renamed from eth1
[    4.753196] e1000 0000:00:03.0 enp0s3: renamed from eth0
Begin: Loading essential drivers ... [    6.271997] md: linear personality registered for level -1
[    6.299753] md: multipath personality registered for level -4
[    6.315502] md: raid0 personality registered for level 0
[    6.328443] md: raid1 personality registered for level 1
[    6.406767] raid6: sse2x1   gen()  6297 MB/s
[    6.474814] raid6: sse2x1   xor()  5680 MB/s
[    6.542572] raid6: sse2x2   gen()  8800 MB/s
[    6.611341] raid6: sse2x2   xor()  5996 MB/s
[    6.682382] raid6: sse2x4   gen()  7697 MB/s
[    6.750603] raid6: sse2x4   xor()  6950 MB/s
[    6.818528] raid6: avx2x1   gen() 14412 MB/s
[    6.886557] raid6: avx2x2   gen() 15991 MB/s
[    6.959213] raid6: avx2x4   gen() 20220 MB/s
[    6.960211] raid6: using algorithm avx2x4 gen() 20220 MB/s
[    6.961359] raid6: using avx2x2 recovery algorithm
[    6.963629] xor: automatically using best checksumming function:
[    7.006694]    avx       : 27836.000 MB/sec
[    7.010074] async_tx: api initialized (async)
[    7.035644] md: raid6 personality registered for level 6
[    7.036736] md: raid5 personality registered for level 5
[    7.038848] md: raid4 personality registered for level 4
[    7.067980] md: raid10 personality registered for level 10
done.
Begin: Running /scripts/init-premount ... done.
Begin: Mounting root file system ... Begin: Running /scripts/local-top ... done.
Begin: Running /scripts/local-premount ... [    7.131789] Btrfs loaded
Scanning for Btrfs filesystems
done.
Warning: fsck not present, so skipping root file system
[    7.232962] EXT4-fs (sda1): INFO: recovery required on readonly filesystem
[    7.234269] EXT4-fs (sda1): write access will be enabled during recovery
[    7.332475] EXT4-fs (sda1): recovery complete
[    7.333669] EXT4-fs (sda1): mounted filesystem with ordered data mode. Opts: (null)
done.
Begin: Running /scripts/local-bottom ... done.
Begin: Running /scripts/init-bottom ... done.
[    7.566655] systemd[1]: systemd 229 running in system mode. (+PAM +AUDIT +SELINUX +IMA +APPARMOR +SMACK +SYSVINIT +UTMP +LIBCRYPTSETUP +GCRYPT +GNUTLS +ACL +XZ -LZ4 +SECCOMP +BLKID +ELFUTILS +KMOD -IDN)
[    7.571027] systemd[1]: Detected virtualization oracle.
[    7.572172] systemd[1]: Detected architecture x86-64.

Welcome to [1mUbuntu 16.04.6 LTS[0m!

[    7.576480] systemd[1]: Set hostname to <dbubuntu>.
[    7.901147] systemd[1]: Listening on LVM2 metadata daemon socket.
[[0;32m  OK  [0m] Listening on LVM2 metadata daemon socket.
[    7.903590] systemd[1]: Reached target User and Group Name Lookups.
[[0;32m  OK  [0m] Reached target User and Group Name Lookups.
[    7.905929] systemd[1]: Listening on Journal Audit Socket.
[[0;32m  OK  [0m] Listening on Journal Audit Socket.
[    7.909945] systemd[1]: Listening on Device-mapper event daemon FIFOs.
[[0;32m  OK  [0m] Listening on Device-mapper event daemon FIFOs.
[    7.913687] systemd[1]: Created slice User and Session Slice.
[[0;32m  OK  [0m] Created slice User and Session Slice.
[    7.916239] systemd[1]: Listening on LVM2 poll daemon socket.
[[0;32m  OK  [0m] Listening on LVM2 poll daemon socket.
[    7.918821] systemd[1]: Reached target System Time Synchronized.
[[0;32m  OK  [0m] Reached target System Time Synchronized.
[    7.920768] systemd[1]: Reached target Swap.
[[0;32m  OK  [0m] Reached target Swap.
[    7.922711] systemd[1]: Listening on Journal Socket (/dev/log).
[[0;32m  OK  [0m] Listening on Journal Socket (/dev/log).
[    7.926205] systemd[1]: Listening on udev Control Socket.
[[0;32m  OK  [0m] Listening on udev Control Socket.
[    7.928546] systemd[1]: Started Trigger resolvconf update for networkd DNS.
[[0;32m  OK  [0m] Started Trigger resolvconf update for networkd DNS.
[    7.930972] systemd[1]: Listening on /dev/initctl Compatibility Named Pipe.
[[0;32m  OK  [0m] Listening on /dev/initctl Compatibility Named Pipe.
[    7.934265] systemd[1]: Reached target Encrypted Volumes.
[[0;32m  OK  [0m] Reached target Encrypted Volumes.
[    7.939669] systemd[1]: Created slice System Slice.
[[0;32m  OK  [0m] Created slice System Slice.
[    7.975719] systemd[1]: Reached target Slices.
[[0;32m  OK  [0m] Reached target Slices.
[    7.977861] systemd[1]: Started Forward Password Requests to Wall Directory Watch.
[[0;32m  OK  [0m] Started Forward Password Requests to Wall Directory Watch.
[    7.987201] systemd[1]: Set up automount Arbitrary Executable File Formats File System Automount Point.
[[0;32m  OK  [0m] Set up automount Arbitrary Executab...ats File System Automount Point.
[    7.993094] systemd[1]: Created slice system-serial\x2dgetty.slice.
[[0;32m  OK  [0m] Created slice system-serial\x2dgetty.slice.
[    7.996190] systemd[1]: Listening on Syslog Socket.
[[0;32m  OK  [0m] Listening on Syslog Socket.
[    7.999095] systemd[1]: Listening on Journal Socket.
[[0;32m  OK  [0m] Listening on Journal Socket.
[    8.022700] systemd[1]: Starting Uncomplicated firewall...
         Starting Uncomplicated firewall...
[    8.027754] systemd[1]: Starting Remount Root and Kernel File Systems...
         Starting Remount Root and Kernel File Systems...
[    8.034374] systemd[1]: Starting Journal Service...
         Starting Journal Service...
[    8.041029] systemd[1]: Starting Nameserver information manager...
         Starting Nameserver information manager...
[    8.045881] systemd[1]: Mounting Debug File System...
         Mounting Debug File System...
[    8.056433] systemd[1]: Starting Set console keymap...
         Starting Set console keymap...
[    8.062652] systemd[1]: Starting Monitoring of LVM2 mirrors, snapshots etc. using dmeventd or progress polling...
[    8.064027] EXT4-fs (sda1): re-mounted. Opts: (null)
         Starting Monitoring of LVM2 mirrors... dmeventd or progress polling...
[    8.079886] systemd[1]: Mounting Huge Pages File System...
         Mounting Huge Pages File System...
[    8.086535] systemd[1]: Starting Load Kernel Modules...
         Starting Load Kernel Modules...
[    8.096213] systemd[1]: Mounting POSIX Message Queue File System...
         Mounting POSIX Message Queue File System...
[    8.099720] systemd[1]: Starting Create list of required static device nodes for the current kernel...
         Starting Create list of required st... nodes for the current kernel...
[    8.111507] systemd[1]: Listening on udev Kernel Socket.
[[0;32m  OK  [0m] Listening on udev Kernel Socket.
[    8.116021] systemd[1]: Mounted Huge Pages File System.
[    8.116050] Loading iSCSI transport class v2.0-870.
[[0;32m  OK  [0m] Mounted Huge Pages File System.
[    8.131006] systemd[1]: Mounted POSIX Message Queue File System.
[[0;32m  OK  [0m] Mounted POSIX Message Queue File System.
[    8.134951] systemd[1]: Mounted Debug File System.
[[0;32m  OK  [0m] Mounted Debug File System.
[    8.138091] systemd[1]: Started Uncomplicated firewall.
[[0;32m  OK  [0m] Started Uncomplicated firewall.
[    8.153054] iscsi: registered transport (tcp)
[    8.155881] systemd[1]: Started Remount Root and Kernel File Systems.
[[0;32m  OK  [0m] Started Remount Root and Kernel File Systems.
[    8.176029] systemd[1]: Started Create list of required static device nodes for the current kernel.
[[0;32m  OK  [0m] Started Create list of required sta...ce nodes for the current kernel.
[    8.187081] systemd[1]: Started LVM2 metadata daemon.
[[0;32m  OK  [0m] Started LVM2 metadata daemon.
[    8.194334] systemd[1]: Starting Create Static Device Nodes in /dev...
         Starting Create Static Device Nodes in /dev...
[    8.250018] systemd[1]: Starting Load/Save Random Seed...
         Starting Load/Save Random Seed...
[    8.270111] systemd[1]: Starting udev Coldplug all Devices...
         Starting udev Coldplug all Devices...
[    8.283227] systemd[1]: Started Journal Service.
[[0;32m  OK  [0m] Started Journal Service.
[[0;32m  OK  [0m] Started Set console keymap.
[    8.298997] iscsi: registered transport (iser)
[[0;32m  OK  [0m] Started Nameserver information manager.
[[0;32m  OK  [0m] Started Load/Save Random Seed.
[[0;32m  OK  [0m] Started Load Kernel Modules.
         Starting Apply Kernel Variables...
         Mounting FUSE Control File System...
         Starting Flush Journal to Persistent Storage...
[[0;32m  OK  [0m] Mounted FUSE Control File System.
[[0;32m  OK  [0m] Started Apply Kernel Variables.
[[0;32m  OK  [0m] Started Create Static Device Nodes in /dev.
[[0;32m  OK  [0m] Started Flush Journal to Persistent Storage.
         Starting udev Kernel Device Manager...
[[0;32m  OK  [0m] Started udev Coldplug all Devices.
[[0;32m  OK  [0m] Started udev Kernel Device Manager.
[[0;32m  OK  [0m] Started Dispatch Password Requests to Console Directory Watch.
[[0;32m  OK  [0m] Started Monitoring of LVM2 mirrors,...ng dmeventd or progress polling.
[[0;32m  OK  [0m] Reached target Local File Systems (Pre).
[[0;32m  OK  [0m] Reached target Local File Systems.
         Starting LSB: AppArmor initialization...
         Starting Initial cloud-init job (pre-networking)...
         Starting Tell Plymouth To Write Out Runtime Data...
         Starting Create Volatile Files and Directories...
         Starting Set console font and keymap...
[[0;32m  OK  [0m] Started Tell Plymouth To Write Out Runtime Data.
[[0;32m  OK  [0m] Started Create Volatile Files and Directories.
         Starting Update UTMP about System Boot/Shutdown...
[[0;32m  OK  [0m] Started Update UTMP about System Boot/Shutdown.
[[0;32m  OK  [0m] Found device /dev/ttyS0.
[[0;32m  OK  [0m] Listening on Load/Save RF Kill Switch Status /dev/rfkill Watch.
[[0;32m  OK  [0m] Started LSB: AppArmor initialization.
[[0;32m  OK  [0m] Found device 82540EM Gigabit Ethern...r (PRO/1000 MT Desktop Adapter).
[[0;32m  OK  [0m] Found device 82540EM Gigabit Ethern...r (PRO/1000 MT Desktop Adapter).
[[0;32m  OK  [0m] Started Set console font and keymap.
[[0;32m  OK  [0m] Created slice system-getty.slice.
[   10.576965] cloud-init[499]: Cloud-init v. 19.4-33-gbb4131a2-0ubuntu1~16.04.1 running 'init-local' at Thu, 23 Jul 2020 15:06:57 +0000. Up 10.09 seconds.
[[0;32m  OK  [0m] Started Initial cloud-init job (pre-networking).
[[0;32m  OK  [0m] Reached target Network (Pre).
[[0;32m  OK  [0m] Started ifup for enp0s3.
         Starting Raise network interfaces...
[[0;32m  OK  [0m] Started ifup for enp0s8.
[[0;32m  OK  [0m] Started Raise network interfaces.
         Starting Initial cloud-init job (metadata service crawler)...
[[0;32m  OK  [0m] Reached target Network.
[   12.130613] cloud-init[1086]: Cloud-init v. 19.4-33-gbb4131a2-0ubuntu1~16.04.1 running 'init' at Thu, 23 Jul 2020 15:06:58 +0000. Up 11.52 seconds.
[   12.132638] cloud-init[1086]: ci-info: ++++++++++++++++++++++++++++++++++++++Net device info+++++++++++++++++++++++++++++++++++++++
[   12.134699] cloud-init[1086]: ci-info: +--------+------+-----------------------------+---------------+--------+-------------------+
[   12.136721] cloud-init[1086]: ci-info: | Device |  Up  |           Address           |      Mask     | Scope  |     Hw-Address    |
[   12.141151] cloud-init[1086]: ci-info: +--------+------+-----------------------------+---------------+--------+-------------------+
[   12.145251] cloud-init[1086]: ci-info: | enp0s3 | True |          10.0.2.15          | 255.255.255.0 | global | 02:63:d7:4e:6d:2e |
[   12.149454] cloud-init[1086]: ci-info: | enp0s3 | True |  fe80::63:d7ff:fe4e:6d2e/64 |       .       |  link  | 02:63:d7:4e:6d:2e |
[   12.187682] cloud-init[1086]: ci-info: | enp0s8 | True |         10.0.200.112        | 255.255.255.0 | global | 08:00:27:ae:24:30 |
[   12.198032] cloud-init[1086]: ci-info: | enp0s8 | True | fe80::a00:27ff:feae:2430/64 |       .       |  link  | 08:00:27:ae:24:30 |
[   12.199723] cloud-init[1086]: ci-info: |   lo   | True |          127.0.0.1          |   255.0.0.0   |  host  |         .         |
[   12.201428] cloud-init[1086]: ci-info: |   lo   | True |           ::1/128           |       .       |  host  |         .         |
[   12.203425] cloud-init[1086]: ci-info: +--------+------+-----------------------------+---------------+--------+-------------------+
[   12.205084] cloud-init[1086]: ci-info: +++++++++++++++++++++++++++Route IPv4 info++++++++++++++++++++++++++++
[   12.209472] cloud-init[1086]: ci-info: +-------+-------------+----------+---------------+-----------+-------+
[   12.216100] cloud-init[1086]: ci-info: | Route | Destination | Gateway  |    Genmask    | Interface | Flags |
[   12.220667] cloud-init[1086]: ci-info: +-------+-------------+----------+---------------+-----------+-------+
[   12.222169] cloud-init[1086]: ci-info: |   0   |   0.0.0.0   | 10.0.2.2 |    0.0.0.0    |   enp0s3  |   UG  |
[   12.234400] cloud-init[1086]: ci-info: |   1   |   10.0.2.0  | 0.0.0.0  | 255.255.255.0 |   enp0s3  |   U   |
[   12.236600] cloud-init[1086]: ci-info: |   2   |  10.0.200.0 | 0.0.0.0  | 255.255.255.0 |   enp0s8  |   U   |
[   12.239687] cloud-init[1086]: ci-info: +-------+-------------+----------+---------------+-----------+-------+
[   12.250610] cloud-init[1086]: ci-info: +++++++++++++++++++Route IPv6 info+++++++++++++++++++
[   12.252088] cloud-init[1086]: ci-info: +-------+-------------+---------+-----------+-------+
[   12.264713] cloud-init[1086]: ci-info: | Route | Destination | Gateway | Interface | Flags |
[   12.267051] cloud-init[1086]: ci-info: +-------+-------------+---------+-----------+-------+
[   12.270916] cloud-init[1086]: ci-info: |   0   |  fe80::/64  |    ::   |   enp0s8  |   U   |
[   12.297830] cloud-init[1086]: ci-info: |   1   |  fe80::/64  |    ::   |   enp0s3  |   U   |
[   12.303893] cloud-init[1086]: ci-info: |   4   |   ff00::/8  |    ::   |   enp0s8  |   U   |
[   12.307989] cloud-init[1086]: ci-info: |   5   |   ff00::/8  |    ::   |   enp0s3  |   U   |
[   12.317214] cloud-init[1086]: ci-info: +-------+-------------+---------+-----------+-------+
[[0;32m  OK  [0m] Started Initial cloud-init job (metadata service crawler).
[[0;32m  OK  [0m] Reached target Cloud-config availability.
[[0;32m  OK  [0m] Reached target Network is Online.
         Starting iSCSI initiator daemon (iscsid)...
[[0;32m  OK  [0m] Reached target System Initialization.
[[0;32m  OK  [0m] Started Daily apt download activities.
[[0;32m  OK  [0m] Started Daily Cleanup of Temporary Directories.
[[0;32m  OK  [0m] Listening on UUID daemon activation socket.
[[0;32m  OK  [0m] Listening on ACPID Listen Socket.
         Starting LXD - unix socket.
[[0;32m  OK  [0m] Started Daily apt upgrade and clean activities.
[[0;32m  OK  [0m] Started Message of the Day.
[[0;32m  OK  [0m] Reached target Timers.
         Starting Socket activation for snappy daemon.
[[0;32m  OK  [0m] Started ACPI Events Check.
[[0;32m  OK  [0m] Reached target Paths.
[[0;32m  OK  [0m] Listening on D-Bus System Message Bus Socket.
[[0;32m  OK  [0m] Listening on LXD - unix socket.
[[0;32m  OK  [0m] Listening on Socket activation for snappy daemon.
[[0;32m  OK  [0m] Reached target Sockets.
[[0;32m  OK  [0m] Reached target Basic System.
         Starting LSB: MD monitoring daemon...
         Starting Accounts Service...
         Starting System Logging Service...
[[0;32m  OK  [0m] Started ACPI event daemon.
         Starting Virtualbox guest utils...
         Starting Message of the Day...
         Starting /etc/rc.local Compatibility...
[[0;32m  OK  [0m] Started Regular background program processing daemon.
         Starting LSB: Record successful boot for GRUB...
         Starting Login Service...
         Starting OpenBSD Secure Shell server...
[[0;32m  OK  [0m] Started Deferred execution scheduler.
[[0;32m  OK  [0m] Started FUSE filesystem for LXC.
         Starting Snappy daemon...
[[0;32m  OK  [0m] Started D-Bus System Message Bus.
         Starting LXD - container startup/shutdown...
[[0;32m  OK  [0m] Started System Logging Service.
[[0;32m  OK  [0m] Started iSCSI initiator daemon (iscsid).
[[0;32m  OK  [0m] Started /etc/rc.local Compatibility.
         Starting Login to default iSCSI targets...
[[0;32m  OK  [0m] Started OpenBSD Secure Shell server.
[[0;32m  OK  [0m] Started Login Service.
[[0;32m  OK  [0m] Started Unattended Upgrades Shutdown.
[[0;32m  OK  [0m] Started LSB: Record successful boot for GRUB.
[[0;32m  OK  [0m] Started LSB: MD monitoring daemon.
         Starting Authenticate and Authorize Users to Run Privileged Tasks...
[[0;32m  OK  [0m] Started Login to default iSCSI targets.
[[0;32m  OK  [0m] Reached target Remote File Systems (Pre).
[[0;32m  OK  [0m] Reached target Remote File Systems.
         Starting LSB: Set the CPU Frequency Scaling governor to "ondemand"...
         Starting LSB: automatic crash report generation...
         Starting Permit User Sessions...
         Starting LSB: daemon to balance interrupts for SMP systems...
[[0;32m  OK  [0m] Started Permit User Sessions.
         Starting Hold until boot process finishes up...
         Starting Terminate Plymouth Boot Screen...
[[0;32m  OK  [0m] Started Hold until boot process finishes up.
[[0;32m  OK  [0m] Started Serial Getty on ttyS0.
[[0;32m  OK  [0m] Started Getty on tty1.
[[0;32m  OK  [0m] Reached target Login Prompts.
         Starting Set console scheme...
[[0;32m  OK  [0m] Started LXD - container startup/shutdown.
[[0;32m  OK  [0m] Started LSB: Set the CPU Frequency Scaling governor to "ondemand".
[[0;32m  OK  [0m] Started Terminate Plymouth Boot Screen.
[[0;32m  OK  [0m] Started Set console scheme.
[[0;32m  OK  [0m] Started LSB: automatic crash report generation.
[[0;32m  OK  [0m] Started Authenticate and Authorize Users to Run Privileged Tasks.
[[0;32m  OK  [0m] Started Virtualbox guest utils.
[[0;32m  OK  [0m] Started Accounts Service.
[[0;32m  OK  [0m] Started LSB: daemon to balance interrupts for SMP systems.
[[0;32m  OK  [0m] Started Snappy daemon.
         Starting Wait until snapd is fully seeded...
[[0;32m  OK  [0m] Started Wait until snapd is fully seeded.
[[0;32m  OK  [0m] Reached target Multi-User System.
[[0;32m  OK  [0m] Reached target Graphical Interface.
         Starting Update UTMP about System Runlevel Changes...
         Starting Apply the settings specified in cloud-config...
[[0;32m  OK  [0m] Created slice User Slice of vagrant.
[[0;32m  OK  [0m] Started Update UTMP about System Runlevel Changes.
[[0;32m  OK  [0m] Started Session 1 of user vagrant.
         Starting User Manager for UID 1000...
[[0;32m  OK  [0m] Started User Manager for UID 1000.
[[0;32m  OK  [0m] Started Message of the Day.
[   14.958895] cloud-init[1376]: Cloud-init v. 19.4-33-gbb4131a2-0ubuntu1~16.04.1 running 'modules:config' at Thu, 23 Jul 2020 15:07:02 +0000. Up 14.65 seconds.
[[0;32m  OK  [0m] Started Apply the settings specified in cloud-config.
         Starting Execute cloud user/final scripts...
[   15.848577] cloud-init[1476]: Cloud-init v. 19.4-33-gbb4131a2-0ubuntu1~16.04.1 running 'modules:final' at Thu, 23 Jul 2020 15:07:03 +0000. Up 15.65 seconds.
[   15.874106] cloud-init[1476]: Cloud-init v. 19.4-33-gbb4131a2-0ubuntu1~16.04.1 finished at Thu, 23 Jul 2020 15:07:03 +0000. Datasource DataSourceNoCloud [seed=/dev/sdb][dsmode=net].  Up 15.82 seconds
[[0;32m  OK  [0m] Started Execute cloud user/final scripts.
         Starting Daily apt download activities...
[[0;32m  OK  [0m] Reached target Cloud-init target.

Ubuntu 16.04.6 LTS dbubuntu ttyS0

dbubuntu login: 